Academic Journals
…
Scielo

La extracción de información para Scielo se encuentra completa, pero la idea es que en este segmento haya una representación gráfica del contenido del Dataframe, así como el correspondiente análisis. En este caso, se dispone de la información completa para darle una estructura al sitio.

El código para recolectar la información de Scielo, se encuentra especificado en el [Anexo | Scielo])(anexo.html#scielo). Por otro lado, a continuación se abre el DataFrame que contiene la información y se ordena de acuerdo a los valores (‘value’).

Scielo <- readRDS("~/data_scielo.rds")
Scielo <- Scielo[order(-Scielo$value),]

Observando el siguiente resultado:

show(Scielo)

## # A tibble: 66 x 5
##    pais          value agno  keyword                journal
##    <chr>         <dbl> <chr> <chr>                  <chr>  
##  1 Brasil           62 19    violence against women SCIELO 
##  2 Brasil           46 20    violence against women SCIELO 
##  3 Brasil           34 19    domestic violence      SCIELO 
##  4 Brasil           28 20    domestic violence      SCIELO 
##  5 Colombia         22 19    violence against women SCIELO 
##  6 Salud Pública    22 19    violence against women SCIELO 
##  7 Salud Pública    18 20    violence against women SCIELO 
##  8 Salud Pública    15 19    domestic violence      SCIELO 
##  9 Colombia         12 19    domestic violence      SCIELO 
## 10 Salud Pública    10 20    domestic violence      SCIELO 
## # ... with 56 more rows

Scopus

La extracción de información para Scopus se encuentra completa, en este segmento irá la representación gráfica del contenido del Dataframe, así como el correspondiente análisis. En este caso, se dispone de la información completa para darle una estructura al sitio.

El código para recolectar la información de Scopus, se encuentra especificado en el [Anexo | Scopus])(anexo.html#scopus). Por otro lado, a continuación se abre el DataFrame que contiene la información.

Scopus <- readRDS("~/data_scopus.rds")
Scopus <- Scopus[order(-Scopus$value),]

Observando el siguiente resultado:

show(Scopus)

## # A tibble: 578 x 5
##    pais           value agno  keyword           journal
##    <chr>          <dbl> <chr> <chr>             <chr>  
##  1 United States    445 19    domestic violence SCOPUS 
##  2 United States    302 20    domestic violence SCOPUS 
##  3 United Kingdom   159 19    domestic violence SCOPUS 
##  4 Australia        131 19    domestic violence SCOPUS 
##  5 United States    118 19    cyberbullying     SCOPUS 
##  6 United States    114 19    grooming          SCOPUS 
##  7 United Kingdom   106 20    domestic violence SCOPUS 
##  8 Australia         99 20    domestic violence SCOPUS 
##  9 United States     76 20    grooming          SCOPUS 
## 10 Canada            74 19    domestic violence SCOPUS 
## # ... with 568 more rows
…
